…
**Variables of Interest:**

-   `m50`: The median of the max-distance mobility for all samples in the specified region
-   `m50_index`: The percent of normal m50 in the region, with normal m50 defined during 2020-02-17 to 2020-03-07

If you would like to read more about the Descarte Labs mobility index, you can find the documentation [here](https://github.com/descarteslabs/DL-COVID-19).

``` r
# Import Messy Data
df <- read.csv("../Scripts/data/messy/us_mobility.csv", stringsAsFactors = FALSE)
(df <- as_tibble(df))
```

    ## # A tibble: 130,639 x 9
    ##    date     country_code admin_level admin1 admin2  fips samples   m50 m50_index
    ##    <chr>    <chr>              <int> <chr>  <chr>  <int>   <int> <dbl>     <int>
    ##  1 2020-03~ US                     1 Alaba~ ""         1  133826  8.33        79
    ##  2 2020-03~ US                     1 Alaba~ ""         1  143632 10.4         98
    ##  3 2020-03~ US                     1 Alaba~ ""         1  146009 10.5        100
    ##  4 2020-03~ US                     1 Alaba~ ""         1  149352 10.1         96
    ##  5 2020-03~ US                     1 Alaba~ ""         1  144109 11.0        104
    ##  6 2020-03~ US                     1 Alaba~ ""         1  141491 13.0        123
    ##  7 2020-03~ US                     1 Alaba~ ""         1  141163 11.4        107
    ##  8 2020-03~ US                     1 Alaba~ ""         1  138075  8.51        80
    ##  9 2020-03~ US                     1 Alaba~ ""         1  145037 10.9        103
    ## 10 2020-03~ US                     1 Alaba~ ""         1  143390 10.9        103
    ## # ... with 130,629 more rows
…
Because the AQI dataframe excludes the county suffix, I removed the 'county' suffix from all the country entries for cohesiveness and easier analysis.

``` r
# Remove County from county name
decrease$county <- gsub(" County", "", decrease$county)

# Check that District of Columbia values have been added
decrease[(decrease$county == "District of Columbia"), ]
```

    ## # A tibble: 49 x 9
    ##    date       country_code admin_level state county  fips samples   m50
    ##    <date>     <chr>              <int> <chr> <chr>  <int>   <int> <dbl>
    ##  1 2020-03-01 US                     1 Dist~ Distr~    11    4735  3.74
    ##  2 2020-03-02 US                     1 Dist~ Distr~    11    4344  2.80
    ##  3 2020-03-03 US                     1 Dist~ Distr~    11    5165  3.58
    ##  4 2020-03-04 US                     1 Dist~ Distr~    11    5349  3.66
    ##  5 2020-03-05 US                     1 Dist~ Distr~    11    4956  3.90
    ##  6 2020-03-06 US                     1 Dist~ Distr~    11    4874  4.27
    ##  7 2020-03-07 US                     1 Dist~ Distr~    11    4928  3.97
    ##  8 2020-03-08 US                     1 Dist~ Distr~    11    5380  4.51
    ##  9 2020-03-09 US                     1 Dist~ Distr~    11    5199  3.38
    ## 10 2020-03-10 US                     1 Dist~ Distr~    11    5090  3.52
    ## # ... with 39 more rows, and 1 more variable: m50_index <int>
…
